…
    "NO" ~ FALSE
  )) |>
  select(line,
         station_name, 
         station_latitude, 
         station_longitude, 
         starts_with("route"),
         entry, 
         vending, 
         entrance_type, 
         ada)
ent_exit_df
```

    ## # A tibble: 1,868 × 19
    ##    line     station_name station_latitude station_longitude route1 route2 route3
    ##    <chr>    <chr>                   <dbl>             <dbl> <chr>  <chr>  <chr> 
    ##  1 4 Avenue 25th St                  40.7             -74.0 R      <NA>   <NA>  
    ##  2 4 Avenue 25th St                  40.7             -74.0 R      <NA>   <NA>  
    ##  3 4 Avenue 36th St                  40.7             -74.0 N      R      <NA>  
    ##  4 4 Avenue 36th St                  40.7             -74.0 N      R      <NA>  
    ##  5 4 Avenue 36th St                  40.7             -74.0 N      R      <NA>  
    ##  6 4 Avenue 45th St                  40.6             -74.0 R      <NA>   <NA>  
    ##  7 4 Avenue 45th St                  40.6             -74.0 R      <NA>   <NA>  
    ##  8 4 Avenue 45th St                  40.6             -74.0 R      <NA>   <NA>  
    ##  9 4 Avenue 45th St                  40.6             -74.0 R      <NA>   <NA>  
    ## 10 4 Avenue 53rd St                  40.6             -74.0 R      <NA>   <NA>  
    ## # ℹ 1,858 more rows
    ## # ℹ 12 more variables: route4 <chr>, route5 <chr>, route6 <chr>, route7 <chr>,
    ## #   route8 <dbl>, route9 <dbl>, route10 <dbl>, route11 <dbl>, entry <lgl>,
    ## #   vending <chr>, entrance_type <chr>, ada <lgl>
…
trash_wheel_df <- bind_rows(
  Mr_trash_wheel |>
    mutate(trash_wheel = "Mr. Trash Wheel"),
  Professor_trash_wheel |>
    mutate(trash_wheel = "Professor Trash Wheel"),
  Gwynnda_trash_wheel |>
    mutate(trash_wheel = "Gwynnda Trash Wheel")
)
trash_wheel_df
```

    ## # A tibble: 1,032 × 15
    ##    dumpster month  year date                weight_tons volume_cubic_yards
    ##       <dbl> <chr> <dbl> <dttm>                    <dbl>              <dbl>
    ##  1        1 May    2014 2014-05-16 00:00:00        4.31                 18
    ##  2        2 May    2014 2014-05-16 00:00:00        2.74                 13
    ##  3        3 May    2014 2014-05-16 00:00:00        3.45                 15
    ##  4        4 May    2014 2014-05-17 00:00:00        3.1                  15
    ##  5        5 May    2014 2014-05-17 00:00:00        4.06                 18
    ##  6        6 May    2014 2014-05-20 00:00:00        2.71                 13
    ##  7        7 May    2014 2014-05-21 00:00:00        1.91                  8
    ##  8        8 May    2014 2014-05-28 00:00:00        3.7                  16
    ##  9        9 June   2014 2014-06-05 00:00:00        2.52                 14
    ## 10       10 June   2014 2014-06-11 00:00:00        3.76                 18
    ## # ℹ 1,022 more rows
    ## # ℹ 9 more variables: plastic_bottles <dbl>, polystyrene <dbl>,
    ## #   cigarette_butts <dbl>, glass_bottles <dbl>, plastic_bags <dbl>,
    ## #   wrappers <dbl>, sports_balls <int>, homes_powered <dbl>, trash_wheel <chr>
…
